<?xml version="1.0" encoding="iso-8859-1"?>
<!-- Generator: Adobe Illustrator 16.0.0, SVG Export Plug-In . SVG Version: 6.00 Build 0)  -->
<!DOCTYPE svg PUBLIC "-//W3C//DTD SVG 1.1//EN" "http://www.w3.org/Graphics/SVG/1.1/DTD/svg11.dtd">
<svg version="1.1" id="Layer_1" xmlns="http://www.w3.org/2000/svg" xmlns:xlink="http://www.w3.org/1999/xlink" x="0px" y="0px"
	 width="60px" height="60px" viewBox="0 0 60 60" style="enable-background:new 0 0 60 60;" xml:space="preserve">
<g style="display:none;">
	<path style="display:inline;fill-rule:evenodd;clip-rule:evenodd;stroke:#000000;stroke-width:0.5154;stroke-miterlimit:10;" d="
		M18.577,58.315c-2.45-2.049-4.9-4.098-7.352-6.147c-0.708-0.592-1.417-1.183-2.151-1.795c0.091-0.133,0.163-0.256,0.251-0.365
		c7.05-8.836,14.106-17.665,21.147-26.508c2.293-2.878,4.388-5.894,6.132-9.141c0.095-0.176,0.175-0.36,0.264-0.543
		c-2.357-0.771-10.486-0.784-13.843-0.016c0.167,0.319,0.319,0.628,0.485,0.929c1.476,2.673,3.227,5.163,5.08,7.585
		c0.479,0.626,0.517,0.969,0.149,1.239c-0.353,0.258-0.639,0.136-1.109-0.479c-2.362-3.082-4.601-6.251-6.221-9.795
		c-0.732-1.602-1.269-3.292-1.886-4.923c-0.018,0.031-0.108,0.157-0.175,0.296c-1.017,2.151-2.05,4.294-3.039,6.458
		c-1.426,3.123-1.348,6.215,0.255,9.265c1.337,2.544,2.984,4.879,4.743,7.14c0.495,0.637,0.539,0.962,0.187,1.243
		c-0.361,0.289-0.64,0.167-1.147-0.482c-1.844-2.361-3.568-4.804-4.942-7.473c-1.684-3.273-1.802-6.629-0.302-9.981
		c1.506-3.366,3.11-6.689,4.679-10.028c0.595-1.265,1.58-2.052,2.948-2.377c3.012-0.713,6.073-0.834,9.138-0.659
		c1.817,0.106,3.627,0.395,5.424,0.698c1.342,0.226,2.289,1.073,2.868,2.299c1.568,3.318,3.167,6.625,4.673,9.971
		c1.731,3.849,1.29,7.554-0.833,11.16c-2.07,3.517-4.589,6.697-7.132,9.867c-5.895,7.347-11.773,14.707-17.655,22.063
		c-0.121,0.15-0.203,0.334-0.303,0.501C18.799,58.315,18.688,58.315,18.577,58.315z M18.535,56.668
		c0.148-0.177,0.282-0.326,0.407-0.482c6.012-7.511,12.019-15.025,18.037-22.53c2.371-2.956,4.675-5.955,6.452-9.319
		c1.597-3.027,1.661-6.107,0.245-9.212c-0.878-1.93-1.796-3.842-2.697-5.762c-0.186-0.395-0.381-0.786-0.62-1.28
		c-0.082,0.286-0.119,0.461-0.181,0.627c-0.617,1.655-1.12,3.364-1.879,4.952c-1.879,3.933-4.388,7.475-7.095,10.875
		c-6.682,8.394-13.378,16.776-20.068,25.164c-0.121,0.151-0.236,0.309-0.376,0.491C13.373,52.368,15.939,54.504,18.535,56.668z
		 M29.857,2.948c-2.13-0.052-4.386,0.136-6.62,0.595c-1.758,0.361-2.865,1.768-2.514,3.437c0.325,1.544,0.777,3.066,1.262,4.57
		c0.337,1.045,0.405,1.024,1.515,0.895c0.202-0.023,0.403-0.047,0.604-0.071c2.755-0.327,5.516-0.536,8.289-0.306
		c1.507,0.125,3.009,0.309,4.515,0.457c0.275,0.027,0.57,0.14,0.741-0.259c0.692-1.613,1.312-3.246,1.589-4.993
		c0.317-2.021-0.566-3.306-2.574-3.746C34.469,3.047,32.244,2.919,29.857,2.948z"/>
	
		<path style="display:inline;fill-rule:evenodd;clip-rule:evenodd;fill:#DCA34E;stroke:#DCA34E;stroke-width:0.5154;stroke-miterlimit:10;" d="
		M41.083,58.315c-0.089-0.153-0.16-0.32-0.269-0.458c-3.171-3.967-6.347-7.933-9.521-11.897c-0.115-0.145-0.306-0.287-0.317-0.44
		c-0.021-0.263-0.014-0.64,0.144-0.771c0.15-0.123,0.521-0.029,0.773,0.044c0.133,0.04,0.221,0.237,0.325,0.367
		c2.955,3.69,5.911,7.381,8.866,11.071c0.103,0.129,0.216,0.249,0.364,0.42c2.598-2.158,5.174-4.3,7.793-6.478
		c-0.4-0.505-0.774-0.979-1.151-1.451c-3.101-3.884-6.198-7.767-9.299-11.65c-0.081-0.101-0.159-0.204-0.239-0.305
		c-0.267-0.329-0.356-0.683,0.021-0.967c0.366-0.274,0.688-0.107,0.95,0.223c3.77,4.721,7.538,9.439,11.307,14.159
		c0.032,0.042,0.051,0.094,0.096,0.18c-0.931,0.779-1.864,1.557-2.797,2.337c-2.237,1.871-4.476,3.745-6.713,5.616
		C41.306,58.315,41.194,58.315,41.083,58.315z"/>
</g>
<g style="display:none;">
	<path style="display:inline;fill:#010101;" d="M29.52,15.548l0.312,0.615l0.623-0.297c0.078-0.036,7.735-3.637,15.21-1.974
		l0.307-1.379c-5.973-1.326-11.873,0.417-14.588,1.439c2.468-7.294-0.063-11.808-0.18-12.008l-1.221,0.707
		c0.025,0.044,2.357,4.211,0.008,11.006c-0.723-0.999-1.629-1.882-2.634-2.656c1.714-4.913-0.155-7.983-0.242-8.115L25.92,3.638
		c0.066,0.107,1.456,2.517,0.215,6.499c-3.918-2.539-8.535-3.634-8.819-3.7l-0.317,1.377C17.096,7.833,26.774,10.123,29.52,15.548z"
		/>
	<path style="display:inline;fill:#010101;" d="M36.249,18.014c3.256-0.665,7.464-0.539,9.503-0.347l0.134-1.405
		c-1.291-0.124-12.693-1.077-15.021,3.265l-0.183,0.345l0.074,0.13l1.654,0.073c-0.035-0.066-0.068-0.13-0.099-0.187
		c0.443-0.586,1.202-1.029,2.129-1.371c6.486,3.87,11.479,14.57,11.413,24.571c-0.043,6.453-2.254,11.205-6.225,13.38
		c-1.255,0.687-9.143-0.119-17.438-6.895c-4.675-3.817-6.968-9.371-7.733-14.311c0.193-1.031,1.679-8.075,6.181-8.718l-0.2-1.397
		c-3.331,0.476-5.246,3.533-6.289,6.15c0-0.028-0.001-0.057-0.001-0.085c0.035-3.581,0.92-6.568,2.253-7.611
		c3.671-2.874,4.803-5.806,5.15-7.449c3.089,2.389,6.015,6.112,5.33,11.437l1.4,0.179c1.505-11.737-12.461-16.352-12.604-16.395
		l-0.432,1.344c0.057,0.018,2.43,0.808,5.027,2.522c-0.104,1.035-0.749,4.123-4.741,7.25c-1.71,1.339-2.755,4.594-2.796,8.71
		c-0.061,5.981,2.156,14.237,8.561,19.469c7.002,5.719,13.56,7.387,16.951,7.387c0.961,0,1.67-0.134,2.059-0.349
		c4.442-2.433,6.913-7.62,6.959-14.609C47.326,33.202,42.588,22.604,36.249,18.014z"/>
	<path style="display:inline;fill:#DEA24D;" d="M30.875,20.21c0.029,0.05,2.681,4.748,2.923,8.324
		c-2.551,0.853-4.192,3.706-4.265,3.839l1.234,0.688c0.015-0.028,1.518-2.638,3.616-3.236c0.63,0.517,2.324,2.104,3.226,4.625
		c-0.084,0.614-0.488,2.789-2.18,4.139c-1.234,0.984-2.916,1.339-5.001,1.058c-1.71-1.226-5.385-2.612-8.093,0.321l1.038,0.957
		c2.61-2.828,6.2-0.157,6.349-0.043l0.147,0.109l0.176,0.027c0.599,0.089,1.171,0.134,1.719,0.134c1.81,0,3.338-0.491,4.56-1.47
		c0.858-0.688,1.436-1.525,1.838-2.332c0.122,3.371-1.426,7.003-4.652,10.813l1.078,0.912c1.387-1.637,2.48-3.252,3.291-4.84
		c0.377,2.502,1.322,5.978,3.726,8.012l0.912-1.079c-3.331-2.818-3.47-9.283-3.475-9.844c0.513-1.742,0.681-3.448,0.463-5.104
		c-0.558-4.235-3.348-6.792-4.274-7.535c-0.137-3.225-2.056-7.162-2.82-8.611l-1.654-0.073L30.875,20.21z"/>
</g>
<g>
	<path style="fill-rule:evenodd;clip-rule:evenodd;" d="M21.595,41.876c-1.233,0.014-2.309-0.408-3.252-1.182
		c-0.464-0.379-0.908-0.784-1.358-1.182c-0.269-0.236-0.319-0.469,0.017-0.702c0.56-0.388,1.109-0.79,1.669-1.176
		c0.833-0.575,1.699-0.958,2.72-0.459c0.109,0.053,0.289,0.058,0.395,0.004c0.939-0.465,1.771-0.188,2.564,0.348
		c0.632,0.428,1.264,0.857,1.864,1.328c0.108,0.085,0.151,0.438,0.067,0.56C25.338,40.77,23.2,41.875,21.595,41.876z M18.363,38.76
		c0.014,0.059,0.027,0.117,0.042,0.177c2.127,0,4.254,0,6.381,0c0.012-0.054,0.024-0.107,0.037-0.161
		c-0.292-0.221-0.579-0.449-0.878-0.66c-0.655-0.457-1.319-0.657-2.069-0.157c-0.147,0.099-0.482,0.049-0.66-0.055
		c-0.564-0.33-1.109-0.316-1.643,0.011C19.154,38.171,18.766,38.476,18.363,38.76z M18.379,39.707c1.742,1.942,4.928,1.926,6.39,0
		C22.655,39.707,20.541,39.707,18.379,39.707z"/>
	<path style="fill-rule:evenodd;clip-rule:evenodd;" d="M29.528,26.489c-0.114,1.358-0.583,1.979-1.535,2.042
		c-0.896,0.059-1.46-0.522-1.769-1.894c-0.436,0.331-0.825,0.66-1.251,0.931c-0.154,0.099-0.394,0.062-0.595,0.085
		c0.051-0.209,0.034-0.49,0.165-0.618c2.056-2.017,4.63-2.126,6.875-0.295c0.132,0.106,0.144,0.363,0.21,0.55
		c-0.199,0.01-0.437,0.094-0.592,0.016c-0.461-0.23-0.887-0.528-1.331-0.793C29.658,26.484,29.588,26.497,29.528,26.489z
		 M27.967,26.186c-0.624,0.004-0.939,0.269-0.937,0.762c0.003,0.454,0.43,0.874,0.886,0.869c0.464-0.004,0.873-0.413,0.854-0.883
		C28.75,26.411,28.494,26.126,27.967,26.186z"/>
	<path style="fill-rule:evenodd;clip-rule:evenodd;" d="M13.271,26.379c-0.5,0.317-0.95,0.636-1.434,0.89
		c-0.174,0.092-0.43,0.026-0.649,0.033c0.08-0.2,0.101-0.473,0.248-0.588c2.277-1.786,4.695-1.676,6.823,0.311
		c0.136,0.128,0.133,0.403,0.195,0.611c-0.217-0.025-0.474,0.017-0.641-0.088c-0.415-0.256-0.788-0.581-1.08-0.803
		c-0.338,0.541-0.584,1.078-0.967,1.486c-0.202,0.216-0.647,0.294-0.976,0.281C13.855,28.472,13.445,27.884,13.271,26.379z
		 M14.877,26.194c-0.559-0.012-0.829,0.227-0.833,0.737c-0.004,0.474,0.386,0.881,0.849,0.888c0.456,0.005,0.877-0.406,0.886-0.864
		C15.789,26.455,15.494,26.207,14.877,26.194z"/>
	<path style="fill-rule:evenodd;clip-rule:evenodd;" d="M18.541,24.341c-0.231,0.011-0.488,0.092-0.688,0.019
		c-0.736-0.267-1.442-0.619-2.182-0.875c-1.322-0.458-2.562-0.24-3.713,0.552c-0.409,0.281-0.831,0.547-1.271,0.773
		c-0.121,0.062-0.328-0.044-0.496-0.073c0.032-0.161,0.009-0.409,0.105-0.47c1.094-0.692,2.114-1.574,3.472-1.691
		c1.651-0.141,3.123,0.47,4.534,1.246c0.111,0.061,0.176,0.206,0.262,0.312C18.558,24.203,18.549,24.272,18.541,24.341z"/>
	<path style="fill-rule:evenodd;clip-rule:evenodd;" d="M32.965,24.954c-0.303,0.042-0.558,0.162-0.716,0.084
		c-0.462-0.226-0.894-0.517-1.322-0.806c-1.209-0.82-2.498-0.918-3.843-0.425c-0.657,0.242-1.286,0.561-1.945,0.797
		c-0.185,0.067-0.43-0.033-0.647-0.057c0.108-0.188,0.169-0.462,0.331-0.549c1.417-0.758,2.895-1.366,4.548-1.146
		c1.295,0.173,2.284,1.015,3.343,1.686C32.79,24.585,32.818,24.705,32.965,24.954z"/>
	<path style="fill-rule:evenodd;clip-rule:evenodd;" d="M21.309,34.34c-0.697-0.271-1.407-0.516-2.083-0.833
		c-0.138-0.063-0.151-0.394-0.221-0.602c0.203,0.007,0.448-0.057,0.602,0.034c1.181,0.697,2.324,0.76,3.474-0.07
		c0.136-0.099,0.389-0.036,0.588-0.047c-0.042,0.193-0.02,0.457-0.139,0.57c-0.597,0.565-1.336,0.798-2.155,0.78
		C21.352,34.229,21.331,34.285,21.309,34.34z"/>
	<path style="fill-rule:evenodd;clip-rule:evenodd;fill:#DCA34E;" d="M27.265,32.64c-0.068,0.772,0.11,1.357,0.737,1.732
		c0.051,0.03,0.061,0.185,0.035,0.265c-0.016,0.054-0.172,0.125-0.192,0.105c-0.301-0.269-0.693-0.503-0.851-0.843
		c-0.153-0.331-0.063-0.776-0.067-1.17C26.927,32.711,27.069,32.69,27.265,32.64z"/>
	<path style="fill-rule:evenodd;clip-rule:evenodd;fill:#DCA34E;" d="M28.401,38.081c-0.198-0.386-0.401-0.771-0.587-1.163
		c-0.017-0.036,0.068-0.17,0.123-0.181c0.082-0.017,0.23,0.007,0.259,0.062c0.188,0.362,0.353,0.737,0.526,1.109
		C28.616,37.965,28.508,38.023,28.401,38.081z"/>
	<path style="fill-rule:evenodd;clip-rule:evenodd;fill:#DCA34E;" d="M27.754,36.115c-0.222,0.123-0.374,0.245-0.403,0.221
		c-0.31-0.262-0.605-0.541-0.887-0.834c-0.023-0.023,0.096-0.182,0.148-0.276C26.967,35.501,27.322,35.777,27.754,36.115z"/>
	<path style="fill-rule:evenodd;clip-rule:evenodd;fill:#DCA34E;" d="M26.207,34.85c-0.203,0.048-0.396,0.141-0.438,0.095
		c-0.247-0.271-0.467-0.565-0.669-0.871c-0.016-0.022,0.167-0.176,0.256-0.269C25.612,34.119,25.868,34.433,26.207,34.85z"/>
	<path style="fill-rule:evenodd;clip-rule:evenodd;fill:#DCA34E;" d="M24.811,33.27c-0.075-0.466-0.151-0.931-0.239-1.477
		C25.143,32.026,25.284,32.757,24.811,33.27z"/>
	<path style="fill:none;" d="M14.555,15.486c0.885-1.421,1.546-2.956,1.591-4.646c0.045-1.676-0.063-3.354-0.11-5.033
		c-0.005-0.199-0.04-0.398-0.061-0.607c-6.634,2.1-10.179,9.211-8.474,16.127C10.406,20.004,12.864,18.2,14.555,15.486z"/>
	<path style="fill:none;" d="M17.167,11.713c0.602,0.962,1.174,1.964,1.912,2.818c3.203,3.708,7.436,5.241,12.191,5.588
		c1.32,0.097,2.67,0.041,3.701,1.133c0.085-0.041,0.172-0.081,0.257-0.122c-0.163-1.786-0.229-3.586-0.513-5.353
		c-0.473-2.964-1.608-5.68-3.79-7.806c-3.947-3.851-8.701-4.431-13.842-3.175c-0.154,0.038-0.35,0.336-0.347,0.511
		c0.028,1.802,0.081,3.605,0.159,5.406C16.91,11.052,16.991,11.431,17.167,11.713z"/>
	<path style="fill:none;" d="M35.992,28.481c0.002-0.102,0.066-0.202,0.064-0.302c-0.021-0.864-0.015-1.731-0.091-2.591
		c-0.028-0.332-0.233-0.601-0.705-0.415c-0.509,0.201-0.682,0.013-0.588-0.53c0.077-0.448,0.11-0.907,0.225-1.345
		c0.235-0.906-0.227-1.49-0.907-1.915c-0.372-0.233-0.837-0.372-1.277-0.429c-1.209-0.156-2.439-0.183-3.643-0.372
		c-4.003-0.627-7.531-2.23-10.28-5.289c-0.768-0.854-1.409-1.822-2.157-2.799c-0.148,0.436-0.266,0.83-0.414,1.211
		c-1.427,3.71-4.186,6.136-7.632,7.892c-0.733,0.374-0.908,0.63-0.839,1.451c0.047,0.557,0.125,1.11,0.189,1.666
		c0.051,0.445-0.125,0.673-0.566,0.477c-0.472-0.21-0.72,0.024-0.756,0.41c-0.079,0.839-0.199,1.705-0.074,2.526
		c0.284,1.859,0.702,3.697,1.073,5.542c0.127,0.631,0.492,1.065,1.151,1.13c0.443,0.044,0.599,0.268,0.661,0.665
		c0.339,2.146,1.33,4.004,2.911,5.429c1.654,1.494,3.478,2.805,5.271,4.137c2.587,1.924,5.973,1.769,8.432-0.322
		c0.804-0.686,1.582-1.405,2.419-2.048c2.444-1.877,4.312-4.109,4.736-7.297c0.024-0.184,0.223-0.477,0.364-0.49
		c1.23-0.126,1.462-0.969,1.504-1.936c-0.103-0.057-0.204-0.099-0.306-0.135l-0.246,0.043c0,0-1.714,0.571-1.828,0.686
		c-0.114,0.113-1.522,0.609-1.904,0.609c-0.381,0-2.096-0.19-2.096-0.19l-1.027-0.609c0,0,0.533-1.333,0.99-1.523
		s2.361-1.332,2.627-1.408c0.268-0.077,4.213-0.658,4.213-0.658l0.014-0.004C35.822,29.469,35.98,29.048,35.992,28.481z"/>
	<path style="stroke:#010101;stroke-width:0.5187;stroke-miterlimit:10;" d="M35.062,32.938c-0.042,0.967-0.273,1.81-1.504,1.936
		c-0.142,0.014-0.34,0.307-0.364,0.49c-0.424,3.188-2.292,5.42-4.736,7.297c-0.837,0.643-1.615,1.362-2.419,2.048
		c-2.459,2.091-5.845,2.246-8.432,0.322c-1.793-1.332-3.616-2.643-5.271-4.137c-1.581-1.425-2.571-3.283-2.911-5.429
		c-0.062-0.397-0.218-0.621-0.661-0.665c-0.659-0.064-1.024-0.499-1.151-1.13c-0.371-1.845-0.789-3.683-1.073-5.542
		c-0.125-0.821-0.005-1.687,0.074-2.526c0.037-0.386,0.284-0.62,0.756-0.41c0.442,0.196,0.618-0.032,0.566-0.477
		c-0.064-0.555-0.142-1.108-0.189-1.666c-0.068-0.82,0.106-1.077,0.839-1.451c3.446-1.756,6.205-4.181,7.632-7.892
		c0.147-0.382,0.266-0.776,0.414-1.211c0.748,0.978,1.389,1.945,2.157,2.799c2.749,3.059,6.277,4.661,10.28,5.289
		c1.204,0.188,2.434,0.216,3.643,0.372c0.44,0.057,0.905,0.196,1.277,0.429c0.681,0.425,1.143,1.009,0.907,1.915
		c-0.114,0.438-0.147,0.897-0.225,1.345c-0.094,0.543,0.079,0.73,0.588,0.53c0.472-0.186,0.677,0.083,0.705,0.415
		c0.076,0.859,0.07,1.727,0.091,2.591c0.002,0.1-0.062,0.2-0.064,0.302c-0.012,0.566-0.17,0.988-0.493,1.267l1.127-0.282
		c0.081-1.015,0.198-1.938,0.209-2.86c0.012-1.02-0.126-2.016-1.344-2.331c0.477-3.105,0.49-6.159-0.164-9.192
		c-0.91-4.215-2.938-7.696-6.813-9.845c-3.028-1.68-6.304-2.04-9.7-1.56C10.452,4.862,5.099,12.233,6.573,20.541
		c0.22,1.238,0.424,2.479,0.641,3.755c-1.108,0.173-1.401,0.938-1.433,1.775c-0.035,0.903,0.014,1.825,0.158,2.717
		c0.263,1.633,0.632,3.248,0.939,4.875c0.163,0.862,0.583,1.479,1.438,1.79c0.186,0.067,0.399,0.293,0.442,0.481
		c0.556,2.455,1.875,4.437,3.688,6.137c0.209,0.197,0.369,0.547,0.385,0.835c0.098,1.677,0.132,3.355,0.214,5.032
		c0.167,3.362-1.768,6.382-4.908,7.627c-0.115,0.047-0.273,0.06-0.336,0.145c-0.097,0.13-0.183,0.314-0.166,0.462
		c0.009,0.076,0.25,0.167,0.39,0.174c0.133,0.007,0.274-0.08,0.408-0.135c2.747-1.134,4.586-3.137,5.085-6.049
		c0.308-1.79,0.094-3.67,0.112-5.509c0.005-0.507,0.001-1.015,0.001-1.617c0.257,0.175,0.46,0.305,0.654,0.446
		c0.952,0.7,1.899,1.405,2.852,2.104c2.89,2.118,6.628,1.989,9.357-0.326c0.712-0.603,1.416-1.215,2.128-1.817
		c0.195-0.165,0.411-0.31,0.706-0.529c0,0.314,0.006,0.492,0,0.671c-0.06,1.574-0.126,3.148-0.182,4.724
		c-0.046,1.325,0.194,2.601,0.75,3.805c0.968,2.092,2.529,3.565,4.682,4.382c0.205,0.078,0.493-0.063,0.742-0.103
		c-0.152-0.183-0.3-0.369-0.46-0.545c-0.037-0.039-0.117-0.038-0.175-0.062c-2.908-1.166-4.847-3.991-4.811-7.127
		c0.024-2.03,0.134-4.061,0.228-6.09c0.009-0.199,0.125-0.441,0.272-0.58c1.782-1.683,3.039-3.654,3.459-6.106
		c0.023-0.136,0.137-0.332,0.246-0.363c1.191-0.334,1.606-1.22,1.688-2.337c0.022-0.305,0.133-0.485,0.327-0.611l-1.34,0.232
		C34.857,32.839,34.959,32.881,35.062,32.938z M17.083,4.797c5.141-1.255,9.895-0.676,13.842,3.175
		c2.181,2.126,3.317,4.842,3.79,7.806c0.283,1.766,0.35,3.566,0.513,5.353c-0.085,0.041-0.172,0.081-0.257,0.122
		c-1.031-1.092-2.381-1.036-3.701-1.133c-4.755-0.347-8.988-1.88-12.191-5.588c-0.737-0.854-1.31-1.856-1.912-2.818
		c-0.176-0.282-0.257-0.661-0.271-0.999c-0.078-1.801-0.131-3.604-0.159-5.406C16.733,5.133,16.93,4.834,17.083,4.797z
		 M15.975,5.199c0.021,0.208,0.055,0.408,0.061,0.607c0.047,1.679,0.155,3.357,0.11,5.033c-0.045,1.691-0.706,3.225-1.591,4.646
		c-1.691,2.714-4.148,4.519-7.054,5.841C5.795,14.411,9.341,7.299,15.975,5.199z"/>
	<path style="fill:#DCA34E;" d="M51.511,28.358c0.191-0.052,0.39-0.073,0.582-0.107c0.059,0.177,0.072,0.313,0.142,0.407
		c0.13,0.173,0.291,0.32,0.439,0.479c0.037-0.218,0.133-0.444,0.098-0.65c-0.083-0.482-0.229-0.955-0.361-1.479
		c0.377-0.102,0.707-0.19,1.068-0.287c0.069,0.218,0.092,0.416,0.189,0.561c0.099,0.143,0.274,0.233,0.417,0.347
		c0.051-0.163,0.172-0.34,0.14-0.484c-0.134-0.606-0.298-1.207-0.488-1.796c-0.045-0.138-0.236-0.229-0.36-0.341
		c-0.065,0.171-0.177,0.339-0.185,0.512c-0.011,0.191,0.074,0.388,0.129,0.629c-0.395,0.094-0.723,0.173-1.086,0.262
		c-0.176-0.653-0.315-1.235-0.5-1.802c-0.046-0.137-0.244-0.224-0.373-0.333c-0.064,0.154-0.189,0.311-0.181,0.461
		c0.015,0.258,0.112,0.513,0.188,0.821c-4.924,1.328-9.794,2.643-14.667,3.957c-0.027,0.007-0.055,0.015-0.082,0.022
		c0.002-0.023,0.004-0.046,0.006-0.069l-1.127,0.282c-0.238,0.207-0.565,0.336-1.003,0.376c-0.23,0.021-0.423,0.328-0.661,0.446
		c-0.342,0.169-0.707,0.293-1.067,0.425c-0.474,0.175-1.137,0.115-1.08,0.933c0.006,0.071-0.283,0.193-0.45,0.24
		c-0.796,0.226-1.598,0.43-2.396,0.65c-0.191,0.053-0.372,0.14-0.558,0.211c0.003,0.071,0.006,0.144,0.008,0.215
		c0.176,0.018,0.362,0.084,0.524,0.045c0.863-0.213,1.717-0.468,2.584-0.664c0.178-0.04,0.401,0.107,0.602,0.174
		c0.219,0.073,0.432,0.175,0.654,0.219c0.109,0.021,0.24-0.051,0.356-0.093c0.578-0.212,1.155-0.328,1.743-0.123l1.34-0.232
		c0.101-0.066,0.216-0.122,0.37-0.162C41.485,31.071,46.496,29.71,51.511,28.358z M51.532,26.122c0.144,0.523,0.27,0.988,0.413,1.51
		c-3.808,1.028-7.555,2.041-11.376,3.073c-0.128-0.503-0.247-0.973-0.385-1.517C43.965,28.167,47.71,27.154,51.532,26.122z
		 M32.507,32.436c-0.063-0.208-0.124-0.414-0.208-0.693c0.461-0.125,0.888-0.196,1.277-0.358c0.296-0.122,0.543-0.357,0.812-0.541
		c0.083-0.057,0.162-0.133,0.256-0.158c1.629-0.444,3.259-0.881,4.971-1.342c0.131,0.551,0.238,1.006,0.361,1.519
		c-1.675,0.451-3.304,0.889-4.933,1.329C34.174,31.774,33.388,32.293,32.507,32.436z"/>
</g>
</svg>
