<?xml version="1.0" encoding="iso-8859-1"?>
<!-- Generator: Adobe Illustrator 16.0.0, SVG Export Plug-In . SVG Version: 6.00 Build 0)  -->
<!DOCTYPE svg PUBLIC "-//W3C//DTD SVG 1.1//EN" "http://www.w3.org/Graphics/SVG/1.1/DTD/svg11.dtd">
<svg version="1.1" id="Layer_1" xmlns="http://www.w3.org/2000/svg" xmlns:xlink="http://www.w3.org/1999/xlink" x="0px" y="0px"
	 width="60px" height="60px" viewBox="0 0 60 60" style="enable-background:new 0 0 60 60;" xml:space="preserve">
<g style="display:none;">
	<path style="display:inline;fill-rule:evenodd;clip-rule:evenodd;stroke:#000000;stroke-width:0.5154;stroke-miterlimit:10;" d="
		M18.577,58.315c-2.45-2.049-4.9-4.098-7.352-6.147c-0.708-0.592-1.417-1.183-2.151-1.795c0.091-0.133,0.163-0.256,0.251-0.365
		c7.05-8.836,14.106-17.665,21.147-26.508c2.293-2.878,4.388-5.894,6.132-9.141c0.095-0.176,0.175-0.36,0.264-0.543
		c-2.357-0.771-10.486-0.784-13.843-0.016c0.167,0.319,0.319,0.628,0.485,0.929c1.476,2.673,3.227,5.163,5.08,7.585
		c0.479,0.626,0.517,0.969,0.149,1.239c-0.353,0.258-0.639,0.136-1.109-0.479c-2.362-3.082-4.601-6.251-6.221-9.795
		c-0.732-1.602-1.269-3.292-1.886-4.923c-0.018,0.031-0.108,0.157-0.175,0.296c-1.017,2.151-2.05,4.294-3.039,6.458
		c-1.426,3.123-1.348,6.215,0.255,9.265c1.337,2.544,2.984,4.879,4.743,7.14c0.495,0.637,0.539,0.962,0.187,1.243
		c-0.361,0.289-0.64,0.167-1.147-0.482c-1.844-2.361-3.568-4.804-4.942-7.473c-1.684-3.273-1.802-6.629-0.302-9.981
		c1.506-3.366,3.11-6.689,4.679-10.028c0.595-1.265,1.58-2.052,2.948-2.377c3.012-0.713,6.073-0.834,9.138-0.659
		c1.817,0.106,3.627,0.395,5.424,0.698c1.342,0.226,2.289,1.073,2.868,2.299c1.568,3.318,3.167,6.625,4.673,9.971
		c1.731,3.849,1.29,7.554-0.833,11.16c-2.07,3.517-4.589,6.697-7.132,9.867c-5.895,7.347-11.773,14.707-17.655,22.063
		c-0.121,0.15-0.203,0.334-0.303,0.501C18.799,58.315,18.688,58.315,18.577,58.315z M18.535,56.668
		c0.148-0.177,0.282-0.326,0.407-0.482c6.012-7.511,12.019-15.025,18.037-22.53c2.371-2.956,4.675-5.955,6.452-9.319
		c1.597-3.027,1.661-6.107,0.245-9.212c-0.878-1.93-1.796-3.842-2.697-5.762c-0.186-0.395-0.381-0.786-0.62-1.28
		c-0.082,0.286-0.119,0.461-0.181,0.627c-0.617,1.655-1.12,3.364-1.879,4.952c-1.879,3.933-4.388,7.475-7.095,10.875
		c-6.682,8.394-13.378,16.776-20.068,25.164c-0.121,0.151-0.236,0.309-0.376,0.491C13.373,52.368,15.939,54.504,18.535,56.668z
		 M29.857,2.948c-2.13-0.052-4.386,0.136-6.62,0.595c-1.758,0.361-2.865,1.768-2.514,3.437c0.325,1.544,0.777,3.066,1.262,4.57
		c0.337,1.045,0.405,1.024,1.515,0.895c0.202-0.023,0.403-0.047,0.604-0.071c2.755-0.327,5.516-0.536,8.289-0.306
		c1.507,0.125,3.009,0.309,4.515,0.457c0.275,0.027,0.57,0.14,0.741-0.259c0.692-1.613,1.312-3.246,1.589-4.993
		c0.317-2.021-0.566-3.306-2.574-3.746C34.469,3.047,32.244,2.919,29.857,2.948z"/>
	
		<path style="display:inline;fill-rule:evenodd;clip-rule:evenodd;fill:#DCA34E;stroke:#DCA34E;stroke-width:0.5154;stroke-miterlimit:10;" d="
		M41.083,58.315c-0.089-0.153-0.16-0.32-0.269-0.458c-3.171-3.967-6.347-7.933-9.521-11.897c-0.115-0.145-0.306-0.287-0.317-0.44
		c-0.021-0.263-0.014-0.64,0.144-0.771c0.15-0.123,0.521-0.029,0.773,0.044c0.133,0.04,0.221,0.237,0.325,0.367
		c2.955,3.69,5.911,7.381,8.866,11.071c0.103,0.129,0.216,0.249,0.364,0.42c2.598-2.158,5.174-4.3,7.793-6.478
		c-0.4-0.505-0.774-0.979-1.151-1.451c-3.101-3.884-6.198-7.767-9.299-11.65c-0.081-0.101-0.159-0.204-0.239-0.305
		c-0.267-0.329-0.356-0.683,0.021-0.967c0.366-0.274,0.688-0.107,0.95,0.223c3.77,4.721,7.538,9.439,11.307,14.159
		c0.032,0.042,0.051,0.094,0.096,0.18c-0.931,0.779-1.864,1.557-2.797,2.337c-2.237,1.871-4.476,3.745-6.713,5.616
		C41.306,58.315,41.194,58.315,41.083,58.315z"/>
</g>
<g>
	<path style="fill:#010101;" d="M29.52,15.548l0.312,0.615l0.623-0.297c0.078-0.036,7.735-3.637,15.21-1.974l0.307-1.379
		c-5.973-1.326-11.873,0.417-14.588,1.439c2.468-7.294-0.063-11.808-0.18-12.008l-1.221,0.707c0.025,0.044,2.357,4.211,0.008,11.006
		c-0.723-0.999-1.629-1.882-2.634-2.656c1.714-4.913-0.155-7.983-0.242-8.115L25.92,3.638c0.066,0.107,1.456,2.517,0.215,6.499
		c-3.918-2.539-8.535-3.634-8.819-3.7l-0.317,1.377C17.096,7.833,26.774,10.123,29.52,15.548z"/>
	<path style="fill:#010101;" d="M36.249,18.014c3.256-0.665,7.464-0.539,9.503-0.347l0.134-1.405
		c-1.291-0.124-12.693-1.077-15.021,3.265l-0.183,0.345l0.074,0.13l1.654,0.073c-0.035-0.066-0.068-0.13-0.099-0.187
		c0.443-0.586,1.202-1.029,2.129-1.371c6.486,3.87,11.479,14.57,11.413,24.571c-0.043,6.453-2.254,11.205-6.225,13.38
		c-1.255,0.687-9.143-0.119-17.438-6.895c-4.675-3.817-6.968-9.371-7.733-14.311c0.193-1.031,1.679-8.075,6.181-8.718l-0.2-1.397
		c-3.331,0.476-5.246,3.533-6.289,6.15c0-0.028-0.001-0.057-0.001-0.085c0.035-3.581,0.92-6.568,2.253-7.611
		c3.671-2.874,4.803-5.806,5.15-7.449c3.089,2.389,6.015,6.112,5.33,11.437l1.4,0.179c1.505-11.737-12.461-16.352-12.604-16.395
		l-0.432,1.344c0.057,0.018,2.43,0.808,5.027,2.522c-0.104,1.035-0.749,4.123-4.741,7.25c-1.71,1.339-2.755,4.594-2.796,8.71
		c-0.061,5.981,2.156,14.237,8.561,19.469c7.002,5.719,13.56,7.387,16.951,7.387c0.961,0,1.67-0.134,2.059-0.349
		c4.442-2.433,6.913-7.62,6.959-14.609C47.326,33.202,42.588,22.604,36.249,18.014z"/>
	<path style="fill:#DEA24D;" d="M30.875,20.21c0.029,0.05,2.681,4.748,2.923,8.324c-2.551,0.853-4.192,3.706-4.265,3.839
		l1.234,0.688c0.015-0.028,1.518-2.638,3.616-3.236c0.63,0.517,2.324,2.104,3.226,4.625c-0.084,0.614-0.488,2.789-2.18,4.139
		c-1.234,0.984-2.916,1.339-5.001,1.058c-1.71-1.226-5.385-2.612-8.093,0.321l1.038,0.957c2.61-2.828,6.2-0.157,6.349-0.043
		l0.147,0.109l0.176,0.027c0.599,0.089,1.171,0.134,1.719,0.134c1.81,0,3.338-0.491,4.56-1.47c0.858-0.688,1.436-1.525,1.838-2.332
		c0.122,3.371-1.426,7.003-4.652,10.813l1.078,0.912c1.387-1.637,2.48-3.252,3.291-4.84c0.377,2.502,1.322,5.978,3.726,8.012
		l0.912-1.079c-3.331-2.818-3.47-9.283-3.475-9.844c0.513-1.742,0.681-3.448,0.463-5.104c-0.558-4.235-3.348-6.792-4.274-7.535
		c-0.137-3.225-2.056-7.162-2.82-8.611l-1.654-0.073L30.875,20.21z"/>
</g>
<g style="display:none;">
	<path style="display:inline;fill:#DCA34E;" d="M31.319,47.167c0.44,0,0.798-0.358,0.798-0.797v-1.991h1.991
		c0.439,0,0.799-0.36,0.799-0.797c0-0.439-0.359-0.8-0.799-0.8h-1.991v-1.991c0-0.437-0.357-0.795-0.798-0.795
		c-0.438,0-0.795,0.358-0.795,0.795v1.991h-1.992c-0.439,0-0.797,0.36-0.797,0.8c0,0.437,0.358,0.797,0.797,0.797h1.992v1.991
		C30.524,46.809,30.882,47.167,31.319,47.167z"/>
	<path style="display:inline;fill:#010101;" d="M11.279,40.153c-0.438-0.04-0.796,0.318-0.837,0.757c0,0,0,0,0,0.042v0.437
		c-4.462-7.968-3.905-17.809,1.434-25.26l-1.155-1.116C4.864,22.942,4.227,33.54,9.008,42.146l-0.398-0.277
		c-0.358-0.24-0.876-0.121-1.116,0.238c-0.239,0.359-0.119,0.877,0.24,1.115l2.908,1.833c0.358,0.239,0.876,0.119,1.116-0.239
		c0.08-0.118,0.119-0.237,0.119-0.398l0.16-3.427C12.036,40.554,11.717,40.153,11.279,40.153L11.279,40.153z"/>
	<path style="display:inline;fill:#010101;" d="M31.319,6.128c3.029,0,6.019,0.558,8.845,1.673c0.08-0.518,0.241-1.036,0.479-1.514
		c-6.016-2.35-12.669-2.35-18.646,0c0.24,0.478,0.399,0.996,0.479,1.514C25.304,6.686,28.292,6.128,31.319,6.128z"/>
	<path style="display:inline;fill:#DCA34E;" d="M13.79,15.771c0.438,0.437,1.155,0.437,1.593,0l4.462-4.344
		c0.717-0.717,1.116-1.712,1.116-2.709s-0.398-1.992-1.116-2.71c-1.474-1.434-3.825-1.434-5.259,0l0,0l0,0
		c-1.474-1.434-3.825-1.434-5.26,0c-0.717,0.718-1.115,1.713-1.115,2.71s0.398,1.992,1.115,2.709L13.79,15.771z M10.442,7.164
		c0.837-0.836,2.191-0.836,3.028,0l0.559,0.558c0.318,0.319,0.796,0.319,1.115,0l0.558-0.558c0.837-0.836,2.192-0.836,3.028,0
		c0.398,0.439,0.638,0.996,0.638,1.554c0,0.598-0.199,1.155-0.638,1.553l-4.143,4.065l-4.144-4.065
		c-0.398-0.438-0.638-0.996-0.638-1.553C9.805,8.12,10.004,7.562,10.442,7.164z"/>
	<path style="display:inline;fill:#DCA34E;" d="M47.258,15.771c0.438,0.437,1.155,0.437,1.594,0l4.463-4.344
		c0.716-0.717,1.114-1.712,1.114-2.709s-0.398-1.992-1.114-2.71c-1.475-1.434-3.825-1.434-5.26,0l0,0l0,0
		c-1.475-1.434-3.824-1.434-5.259,0c-0.716,0.718-1.114,1.713-1.114,2.71s0.398,1.992,1.114,2.709L47.258,15.771z M43.911,7.164
		c0.836-0.836,2.19-0.836,3.027,0l0.559,0.558c0.318,0.319,0.797,0.319,1.115,0l0.557-0.558c0.838-0.836,2.193-0.836,3.03,0
		c0.398,0.439,0.636,0.996,0.636,1.554c0,0.598-0.199,1.155-0.636,1.553l-4.145,4.065l-4.144-4.065
		c-0.398-0.438-0.638-0.996-0.638-1.553C43.273,8.12,43.474,7.562,43.911,7.164z"/>
	<path style="display:inline;fill:#DCA34E;" d="M54.151,39.795c-1.037-0.158-2.112-0.2-3.188-0.2
		c-4.782,0-16.057,1.437-17.652,14.624v0.041c-0.039,0.396,0.24,0.756,0.598,0.876c1.355,0.278,2.75,0.398,4.145,0.398
		c5.339,0,14.582-1.913,16.734-14.821C54.908,40.274,54.589,39.876,54.151,39.795L54.151,39.795z M38.054,53.941L38.054,53.941
		c-0.716,0-1.314-0.04-1.872-0.08l6.295-4.425c0.359-0.237,0.438-0.757,0.199-1.114c-0.24-0.358-0.757-0.439-1.115-0.198l0,0
		l-6.335,4.461c2.112-9.841,10.638-11.396,15.777-11.396c0.876,0,1.595,0.04,2.111,0.081C51.003,51.71,43.791,53.941,38.054,53.941z
		"/>
	<path style="display:inline;fill:#010101;" d="M51.96,14.973l-1.156,1.116c2.868,3.984,4.423,8.805,4.423,13.746
		c0,2.827-0.518,5.658-1.514,8.287c0.398,0.039,0.638,0.079,0.677,0.079c0.319,0.041,0.598,0.16,0.837,0.319
		C58.175,30.632,56.94,21.786,51.96,14.973z"/>
	<path style="display:inline;fill:#010101;" d="M16.379,49.796l-2.35-12.989h34.583l-0.237,1.315
		c0.595-0.041,1.114-0.078,1.632-0.119l0.239-1.196h0.199c1.315,0,2.39-1.074,2.39-2.391v-0.797c0-1.313-1.074-2.391-2.39-2.391
		h-1.672c0.038-0.318,0.078-0.676,0.078-0.995c0-3.069-1.832-5.658-4.223-6.096c-0.239-2.75-1.992-4.94-4.186-5.379
		c-0.279-3.067-2.39-5.458-4.938-5.458c-1.754,0-3.309,1.115-4.186,2.829c-0.876-1.713-2.43-2.829-4.183-2.829
		c-2.549,0-4.661,2.391-4.94,5.458c-2.191,0.439-3.944,2.63-4.184,5.379c-2.39,0.438-4.223,3.027-4.223,6.096
		c0,0.319,0.04,0.677,0.079,0.995h-1.672c-1.316,0-2.392,1.077-2.392,2.391v0.797c0,1.316,1.076,2.391,2.392,2.391h0.199
		l2.39,13.229c0.239,1.752,1.633,3.108,3.108,3.108h13.945c0.079-0.56,0.199-1.077,0.319-1.595H17.933
		C17.256,51.55,16.499,50.753,16.379,49.796z M47.258,30.233c0,0.319-0.04,0.677-0.079,0.995h-6.614
		c-0.04-0.318-0.079-0.676-0.079-0.995c0-2.51,1.514-4.583,3.387-4.583C45.743,25.651,47.258,27.723,47.258,30.233z M23.83,31.229
		c-0.039-0.318-0.08-0.676-0.08-0.995c0-2.51,1.515-4.583,3.386-4.583c1.873,0,3.388,2.072,3.388,4.583
		c0,0.319-0.041,0.677-0.081,0.995H23.83z M31.319,20.272c1.675,0,3.108,1.674,3.348,3.865c-1.474,0.358-2.708,1.394-3.348,2.749
		c-0.637-1.355-1.871-2.391-3.346-2.749C28.212,21.946,29.646,20.272,31.319,20.272z M32.196,31.229
		c-0.038-0.318-0.079-0.676-0.079-0.995c0-2.51,1.514-4.583,3.388-4.583c1.873,0,3.387,2.072,3.387,4.583
		c0,0.319-0.041,0.677-0.081,0.995H32.196z M43.035,24.137c-1.475,0.358-2.71,1.394-3.347,2.749
		c-0.639-1.355-1.874-2.391-3.348-2.749c0.239-2.191,1.633-3.865,3.348-3.865C41.399,20.272,42.796,21.946,43.035,24.137z
		 M35.505,14.894c1.672,0,3.105,1.674,3.346,3.864c-1.473,0.359-2.709,1.395-3.346,2.75c-0.639-1.355-1.874-2.39-3.347-2.75
		C32.396,16.567,33.83,14.894,35.505,14.894z M27.136,14.894c1.674,0,3.108,1.674,3.347,3.864c-1.474,0.359-2.709,1.395-3.347,2.75
		c-0.637-1.355-1.872-2.39-3.346-2.75C24.029,16.567,25.463,14.894,27.136,14.894z M22.954,20.272c1.673,0,3.107,1.674,3.347,3.865
		c-1.475,0.358-2.709,1.394-3.347,2.749c-0.638-1.355-1.874-2.391-3.347-2.749C19.845,21.946,21.279,20.272,22.954,20.272z
		 M15.383,30.233c0-2.51,1.514-4.583,3.387-4.583c1.874,0,3.387,2.072,3.387,4.583c0,0.319-0.04,0.677-0.08,0.995h-6.615
		C15.423,30.911,15.383,30.553,15.383,30.233z M11.398,34.416v-0.797c0-0.438,0.359-0.797,0.798-0.797h38.249
		c0.438,0,0.797,0.359,0.797,0.797v0.797c0,0.438-0.358,0.798-0.797,0.798H12.196C11.757,35.214,11.398,34.854,11.398,34.416z"/>
</g>
</svg>
